^C:\Users\emi_s_000\OneDrive\Documentos\Graficacion\Libs\Glew\build\vc12\glew_shared.vcxproj
C:\Users\emi_s_000\OneDrive\Documentos\Graficacion\Libs\Glew\lib\Debug\x64\glew32d.lib
C:\Users\emi_s_000\OneDrive\Documentos\Graficacion\Libs\Glew\lib\Debug\x64\glew32d.exp
^C:\Users\rafae\OneDrive\Documentos\Ghost\6to\GraficacionGraficada}\Graficacion\Libs\Glew\build\vc12\glew_shared.vcxproj
C:\Users\rafae\OneDrive\Documentos\Ghost\6to\GraficacionGraficada}\Graficacion\Libs\Glew\lib\Debug\x64\glew32d.lib
C:\Users\rafae\OneDrive\Documentos\Ghost\6to\GraficacionGraficada}\Graficacion\Libs\Glew\lib\Debug\x64\glew32d.exp
