#Command: "C:\Program Files (x86)\Microsoft Visual Studio\2017\Community\VC\Tools\MSVC\14.11.25503\bin\HostX86\x64\link.exe" /ERRORREPORT:PROMPT @C:\Users\rafae\AppData\Local\Temp\tmpd55df5abd86d450fa6cfb8d043a8c9f5.rsp
^C:\USERS\RAFAE\ONEDRIVE\DOCUMENTOS\GHOST\6TO\GRAFICACIONGRAFICADA}\GRAFICACION\LIBS\GLEW\BUILD\VC12\TMP\GLEW_SHARED\DEBUG\X64\GLEW.OBJ|C:\USERS\RAFAE\ONEDRIVE\DOCUMENTOS\GHOST\6TO\GRAFICACIONGRAFICADA}\GRAFICACION\LIBS\GLEW\BUILD\VC12\TMP\GLEW_SHARED\DEBUG\X64\GLEW.RES
C:\USERS\RAFAE\APPDATA\LOCAL\TEMP\LNK{2F51B98B-49B0-4B9C-A4C9-8A723C522CCA}.TMP
