^C:\USERS\EMI_S_000\ONEDRIVE\DOCUMENTOS\GRAFICACION\LIBS\GLEW\BUILD\GLEW.RC
C:\USERS\EMI_S_000\ONEDRIVE\DOCUMENTOS\GRAFICACION\LIBS\GLEW\BUILD\VC12\TMP\GLEW_SHARED\DEBUG\X64\GLEW.RES
^C:\USERS\RAFAE\ONEDRIVE\DOCUMENTOS\GHOST\6TO\GRAFICACIONGRAFICADA}\GRAFICACION\LIBS\GLEW\BUILD\GLEW.RC
C:\USERS\RAFAE\ONEDRIVE\DOCUMENTOS\GHOST\6TO\GRAFICACIONGRAFICADA}\GRAFICACION\LIBS\GLEW\BUILD\VC12\TMP\GLEW_SHARED\DEBUG\X64\GLEW.RES
