^C:\USERS\RAFAE\DESKTOP\GRAFICACION\PROJECTOSCG2\PLANOTEXTURA\X64\DEBUG\APPLICATION.OBJ|C:\USERS\RAFAE\DESKTOP\GRAFICACION\PROJECTOSCG2\PLANOTEXTURA\X64\DEBUG\PLANE.OBJ|C:\USERS\RAFAE\DESKTOP\GRAFICACION\PROJECTOSCG2\PLANOTEXTURA\X64\DEBUG\PLANOTEXTURA.OBJ|C:\USERS\RAFAE\DESKTOP\GRAFICACION\PROJECTOSCG2\PLANOTEXTURA\X64\DEBUG\SHADERFUNCS.OBJ
C:\USERS\RAFAE\DESKTOP\GRAFICACION\PROJECTOSCG2\X64\DEBUG\PLANOTEXTURA.ILK
C:\USERS\RAFAE\DESKTOP\GRAFICACION\PROJECTOSCG2\X64\DEBUG\PLANOTEXTURA.EXE
C:\USERS\RAFAE\DESKTOP\GRAFICACION\PROJECTOSCG2\X64\DEBUG\PLANOTEXTURA.PDB
^C:\USERS\RAFAE\ONEDRIVE\DOCUMENTOS\CG2\GRAFICACION\PROJECTOSCG2\DOBLETEXTURA\X64\DEBUG\APPLICATION.OBJ|C:\USERS\RAFAE\ONEDRIVE\DOCUMENTOS\CG2\GRAFICACION\PROJECTOSCG2\DOBLETEXTURA\X64\DEBUG\PLANE.OBJ|C:\USERS\RAFAE\ONEDRIVE\DOCUMENTOS\CG2\GRAFICACION\PROJECTOSCG2\DOBLETEXTURA\X64\DEBUG\PLANOTEXTURA.OBJ|C:\USERS\RAFAE\ONEDRIVE\DOCUMENTOS\CG2\GRAFICACION\PROJECTOSCG2\DOBLETEXTURA\X64\DEBUG\SHADERFUNCS.OBJ
C:\USERS\RAFAE\ONEDRIVE\DOCUMENTOS\CG2\GRAFICACION\PROJECTOSCG2\X64\DEBUG\PLANOTEXTURA.ILK
C:\USERS\RAFAE\ONEDRIVE\DOCUMENTOS\CG2\GRAFICACION\PROJECTOSCG2\X64\DEBUG\PLANOTEXTURA.EXE
C:\USERS\RAFAE\ONEDRIVE\DOCUMENTOS\CG2\GRAFICACION\PROJECTOSCG2\X64\DEBUG\PLANOTEXTURA.PDB
