^C:\USERS\DAVID\DOCUMENTS\PEDRITOELGRAFICADOR\GRAFICACION\PROJECTOSCG2\HELLOCUBE\HELLOCUBE.CPP
/c /IINCLUDE /IC:\USERS\DAVID\DOCUMENTS\PEDRITOELGRAFICADOR\GRAFICACION\PROJECTOSCG2\../LIBS/GLM /IC:\USERS\DAVID\DOCUMENTS\PEDRITOELGRAFICADOR\GRAFICACION\PROJECTOSCG2\../LIBS/GLEW/INCLUDE /IC:\USERS\DAVID\DOCUMENTS\PEDRITOELGRAFICADOR\GRAFICACION\PROJECTOSCG2\../LIBS/GLFW/INCLUDE /ZI /nologo /W3 /WX- /diagnostics:classic /sdl /Od /D _MBCS /Gm /EHsc /RTC1 /MDd /GS /fp:precise /Zc:wchar_t /Zc:forScope /Zc:inline /Fo"X64\DEBUG\\" /Fd"X64\DEBUG\VC141.PDB" /Gd /TP C:\USERS\DAVID\DOCUMENTS\PEDRITOELGRAFICADOR\GRAFICACION\PROJECTOSCG2\HELLOCUBE\HELLOCUBE.CPP
^C:\USERS\DAVID\DOCUMENTS\PEDRITOELGRAFICADOR\GRAFICACION\PROJECTOSCG2\HELLOCUBE\SRC\APPLICATION.CPP
/c /IINCLUDE /IC:\USERS\DAVID\DOCUMENTS\PEDRITOELGRAFICADOR\GRAFICACION\PROJECTOSCG2\../LIBS/GLM /IC:\USERS\DAVID\DOCUMENTS\PEDRITOELGRAFICADOR\GRAFICACION\PROJECTOSCG2\../LIBS/GLEW/INCLUDE /IC:\USERS\DAVID\DOCUMENTS\PEDRITOELGRAFICADOR\GRAFICACION\PROJECTOSCG2\../LIBS/GLFW/INCLUDE /ZI /nologo /W3 /WX- /diagnostics:classic /sdl /Od /D _MBCS /Gm /EHsc /RTC1 /MDd /GS /fp:precise /Zc:wchar_t /Zc:forScope /Zc:inline /Fo"X64\DEBUG\\" /Fd"X64\DEBUG\VC141.PDB" /Gd /TP C:\USERS\DAVID\DOCUMENTS\PEDRITOELGRAFICADOR\GRAFICACION\PROJECTOSCG2\HELLOCUBE\SRC\APPLICATION.CPP
^C:\USERS\DAVID\DOCUMENTS\PEDRITOELGRAFICADOR\GRAFICACION\PROJECTOSCG2\HELLOCUBE\SRC\SHADERFUNCS.CPP
/c /IINCLUDE /IC:\USERS\DAVID\DOCUMENTS\PEDRITOELGRAFICADOR\GRAFICACION\PROJECTOSCG2\../LIBS/GLM /IC:\USERS\DAVID\DOCUMENTS\PEDRITOELGRAFICADOR\GRAFICACION\PROJECTOSCG2\../LIBS/GLEW/INCLUDE /IC:\USERS\DAVID\DOCUMENTS\PEDRITOELGRAFICADOR\GRAFICACION\PROJECTOSCG2\../LIBS/GLFW/INCLUDE /ZI /nologo /W3 /WX- /diagnostics:classic /sdl /Od /D _MBCS /Gm /EHsc /RTC1 /MDd /GS /fp:precise /Zc:wchar_t /Zc:forScope /Zc:inline /Fo"X64\DEBUG\\" /Fd"X64\DEBUG\VC141.PDB" /Gd /TP C:\USERS\DAVID\DOCUMENTS\PEDRITOELGRAFICADOR\GRAFICACION\PROJECTOSCG2\HELLOCUBE\SRC\SHADERFUNCS.CPP
^C:\USERS\JABU\DESKTOP\GRAFICACIONGRAFICADA}\GRAFICACION\PROJECTOSCG2\HELLOCUBE\HELLOCUBE.CPP
/c /IINCLUDE /I"C:\USERS\JABU\DESKTOP\GRAFICACIONGRAFICADA}\GRAFICACION\PROJECTOSCG2\../LIBS/GLM" /I"C:\USERS\JABU\DESKTOP\GRAFICACIONGRAFICADA}\GRAFICACION\PROJECTOSCG2\../LIBS/GLEW/INCLUDE" /I"C:\USERS\JABU\DESKTOP\GRAFICACIONGRAFICADA}\GRAFICACION\PROJECTOSCG2\../LIBS/GLFW/INCLUDE" /ZI /nologo /W3 /WX- /diagnostics:classic /sdl /Od /D _MBCS /Gm /EHsc /RTC1 /MDd /GS /fp:precise /Zc:wchar_t /Zc:forScope /Zc:inline /Fo"X64\DEBUG\\" /Fd"X64\DEBUG\VC141.PDB" /Gd /TP C:\USERS\JABU\DESKTOP\GRAFICACIONGRAFICADA}\GRAFICACION\PROJECTOSCG2\HELLOCUBE\HELLOCUBE.CPP
^C:\USERS\JABU\DESKTOP\GRAFICACIONGRAFICADA}\GRAFICACION\PROJECTOSCG2\HELLOCUBE\SRC\APPLICATION.CPP
/c /IINCLUDE /I"C:\USERS\JABU\DESKTOP\GRAFICACIONGRAFICADA}\GRAFICACION\PROJECTOSCG2\../LIBS/GLM" /I"C:\USERS\JABU\DESKTOP\GRAFICACIONGRAFICADA}\GRAFICACION\PROJECTOSCG2\../LIBS/GLEW/INCLUDE" /I"C:\USERS\JABU\DESKTOP\GRAFICACIONGRAFICADA}\GRAFICACION\PROJECTOSCG2\../LIBS/GLFW/INCLUDE" /ZI /nologo /W3 /WX- /diagnostics:classic /sdl /Od /D _MBCS /Gm /EHsc /RTC1 /MDd /GS /fp:precise /Zc:wchar_t /Zc:forScope /Zc:inline /Fo"X64\DEBUG\\" /Fd"X64\DEBUG\VC141.PDB" /Gd /TP C:\USERS\JABU\DESKTOP\GRAFICACIONGRAFICADA}\GRAFICACION\PROJECTOSCG2\HELLOCUBE\SRC\APPLICATION.CPP
^C:\USERS\JABU\DESKTOP\GRAFICACIONGRAFICADA}\GRAFICACION\PROJECTOSCG2\HELLOCUBE\SRC\SHADERFUNCS.CPP
/c /IINCLUDE /I"C:\USERS\JABU\DESKTOP\GRAFICACIONGRAFICADA}\GRAFICACION\PROJECTOSCG2\../LIBS/GLM" /I"C:\USERS\JABU\DESKTOP\GRAFICACIONGRAFICADA}\GRAFICACION\PROJECTOSCG2\../LIBS/GLEW/INCLUDE" /I"C:\USERS\JABU\DESKTOP\GRAFICACIONGRAFICADA}\GRAFICACION\PROJECTOSCG2\../LIBS/GLFW/INCLUDE" /ZI /nologo /W3 /WX- /diagnostics:classic /sdl /Od /D _MBCS /Gm /EHsc /RTC1 /MDd /GS /fp:precise /Zc:wchar_t /Zc:forScope /Zc:inline /Fo"X64\DEBUG\\" /Fd"X64\DEBUG\VC141.PDB" /Gd /TP C:\USERS\JABU\DESKTOP\GRAFICACIONGRAFICADA}\GRAFICACION\PROJECTOSCG2\HELLOCUBE\SRC\SHADERFUNCS.CPP
^C:\USERS\JABU\DESKTOP\GRAFICACIONGRAFICADA}\GRAFICACION\PROJECTOSCG2\HELLOCUBE\SRC\HELLOCUBE.CPP
/c /IINCLUDE /I"C:\USERS\JABU\DESKTOP\GRAFICACIONGRAFICADA}\GRAFICACION\PROJECTOSCG2\../LIBS/GLM" /I"C:\USERS\JABU\DESKTOP\GRAFICACIONGRAFICADA}\GRAFICACION\PROJECTOSCG2\../LIBS/GLEW/INCLUDE" /I"C:\USERS\JABU\DESKTOP\GRAFICACIONGRAFICADA}\GRAFICACION\PROJECTOSCG2\../LIBS/GLFW/INCLUDE" /ZI /nologo /W3 /WX- /diagnostics:classic /sdl /Od /D _MBCS /Gm /EHsc /RTC1 /MDd /GS /fp:precise /Zc:wchar_t /Zc:forScope /Zc:inline /Fo"X64\DEBUG\\" /Fd"X64\DEBUG\VC141.PDB" /Gd /TP C:\USERS\JABU\DESKTOP\GRAFICACIONGRAFICADA}\GRAFICACION\PROJECTOSCG2\HELLOCUBE\SRC\HELLOCUBE.CPP
^C:\USERS\RAFAE\DESKTOP\GRAFICACIONGRAFICADA}\GRAFICACION\PROJECTOSCG2\HELLOCUBE\SRC\APPLICATION.CPP
/c /IINCLUDE /I"C:\USERS\RAFAE\DESKTOP\GRAFICACIONGRAFICADA}\GRAFICACION\PROJECTOSCG2\../LIBS/GLM" /I"C:\USERS\RAFAE\DESKTOP\GRAFICACIONGRAFICADA}\GRAFICACION\PROJECTOSCG2\../LIBS/GLEW/INCLUDE" /I"C:\USERS\RAFAE\DESKTOP\GRAFICACIONGRAFICADA}\GRAFICACION\PROJECTOSCG2\../LIBS/GLFW/INCLUDE" /ZI /nologo /W3 /WX- /diagnostics:classic /sdl /Od /D _MBCS /Gm /EHsc /RTC1 /MDd /GS /fp:precise /Zc:wchar_t /Zc:forScope /Zc:inline /Fo"X64\DEBUG\\" /Fd"X64\DEBUG\VC141.PDB" /Gd /TP C:\USERS\RAFAE\DESKTOP\GRAFICACIONGRAFICADA}\GRAFICACION\PROJECTOSCG2\HELLOCUBE\SRC\APPLICATION.CPP
^C:\USERS\RAFAE\DESKTOP\GRAFICACIONGRAFICADA}\GRAFICACION\PROJECTOSCG2\HELLOCUBE\SRC\HELLOCUBE.CPP
/c /IINCLUDE /I"C:\USERS\RAFAE\DESKTOP\GRAFICACIONGRAFICADA}\GRAFICACION\PROJECTOSCG2\../LIBS/GLM" /I"C:\USERS\RAFAE\DESKTOP\GRAFICACIONGRAFICADA}\GRAFICACION\PROJECTOSCG2\../LIBS/GLEW/INCLUDE" /I"C:\USERS\RAFAE\DESKTOP\GRAFICACIONGRAFICADA}\GRAFICACION\PROJECTOSCG2\../LIBS/GLFW/INCLUDE" /ZI /nologo /W3 /WX- /diagnostics:classic /sdl /Od /D _MBCS /Gm /EHsc /RTC1 /MDd /GS /fp:precise /Zc:wchar_t /Zc:forScope /Zc:inline /Fo"X64\DEBUG\\" /Fd"X64\DEBUG\VC141.PDB" /Gd /TP C:\USERS\RAFAE\DESKTOP\GRAFICACIONGRAFICADA}\GRAFICACION\PROJECTOSCG2\HELLOCUBE\SRC\HELLOCUBE.CPP
^C:\USERS\RAFAE\DESKTOP\GRAFICACIONGRAFICADA}\GRAFICACION\PROJECTOSCG2\HELLOCUBE\SRC\SHADERFUNCS.CPP
/c /IINCLUDE /I"C:\USERS\RAFAE\DESKTOP\GRAFICACIONGRAFICADA}\GRAFICACION\PROJECTOSCG2\../LIBS/GLM" /I"C:\USERS\RAFAE\DESKTOP\GRAFICACIONGRAFICADA}\GRAFICACION\PROJECTOSCG2\../LIBS/GLEW/INCLUDE" /I"C:\USERS\RAFAE\DESKTOP\GRAFICACIONGRAFICADA}\GRAFICACION\PROJECTOSCG2\../LIBS/GLFW/INCLUDE" /ZI /nologo /W3 /WX- /diagnostics:classic /sdl /Od /D _MBCS /Gm /EHsc /RTC1 /MDd /GS /fp:precise /Zc:wchar_t /Zc:forScope /Zc:inline /Fo"X64\DEBUG\\" /Fd"X64\DEBUG\VC141.PDB" /Gd /TP C:\USERS\RAFAE\DESKTOP\GRAFICACIONGRAFICADA}\GRAFICACION\PROJECTOSCG2\HELLOCUBE\SRC\SHADERFUNCS.CPP
^C:\USERS\RAFAE\ONEDRIVE\DOCUMENTOS\GHOST\6TO\GRAFICACIONGRAFICADA}\GRAFICACION\PROJECTOSCG2\HELLOCUBE\SRC\APPLICATION.CPP
/c /IINCLUDE /I"C:\USERS\RAFAE\ONEDRIVE\DOCUMENTOS\GHOST\6TO\GRAFICACIONGRAFICADA}\GRAFICACION\PROJECTOSCG2\../LIBS/GLM" /I"C:\USERS\RAFAE\ONEDRIVE\DOCUMENTOS\GHOST\6TO\GRAFICACIONGRAFICADA}\GRAFICACION\PROJECTOSCG2\../LIBS/GLEW/INCLUDE" /I"C:\USERS\RAFAE\ONEDRIVE\DOCUMENTOS\GHOST\6TO\GRAFICACIONGRAFICADA}\GRAFICACION\PROJECTOSCG2\../LIBS/GLFW/INCLUDE" /ZI /nologo /W3 /WX- /diagnostics:classic /sdl /Od /D _MBCS /Gm /EHsc /RTC1 /MDd /GS /fp:precise /Zc:wchar_t /Zc:forScope /Zc:inline /Fo"X64\DEBUG\\" /Fd"X64\DEBUG\VC141.PDB" /Gd /TP C:\USERS\RAFAE\ONEDRIVE\DOCUMENTOS\GHOST\6TO\GRAFICACIONGRAFICADA}\GRAFICACION\PROJECTOSCG2\HELLOCUBE\SRC\APPLICATION.CPP
^C:\USERS\RAFAE\ONEDRIVE\DOCUMENTOS\GHOST\6TO\GRAFICACIONGRAFICADA}\GRAFICACION\PROJECTOSCG2\HELLOCUBE\SRC\HELLOCUBE.CPP
/c /IINCLUDE /I"C:\USERS\RAFAE\ONEDRIVE\DOCUMENTOS\GHOST\6TO\GRAFICACIONGRAFICADA}\GRAFICACION\PROJECTOSCG2\../LIBS/GLM" /I"C:\USERS\RAFAE\ONEDRIVE\DOCUMENTOS\GHOST\6TO\GRAFICACIONGRAFICADA}\GRAFICACION\PROJECTOSCG2\../LIBS/GLEW/INCLUDE" /I"C:\USERS\RAFAE\ONEDRIVE\DOCUMENTOS\GHOST\6TO\GRAFICACIONGRAFICADA}\GRAFICACION\PROJECTOSCG2\../LIBS/GLFW/INCLUDE" /ZI /nologo /W3 /WX- /diagnostics:classic /sdl /Od /D _MBCS /Gm /EHsc /RTC1 /MDd /GS /fp:precise /Zc:wchar_t /Zc:forScope /Zc:inline /Fo"X64\DEBUG\\" /Fd"X64\DEBUG\VC141.PDB" /Gd /TP C:\USERS\RAFAE\ONEDRIVE\DOCUMENTOS\GHOST\6TO\GRAFICACIONGRAFICADA}\GRAFICACION\PROJECTOSCG2\HELLOCUBE\SRC\HELLOCUBE.CPP
^C:\USERS\RAFAE\ONEDRIVE\DOCUMENTOS\GHOST\6TO\GRAFICACIONGRAFICADA}\GRAFICACION\PROJECTOSCG2\HELLOCUBE\SRC\SHADERFUNCS.CPP
/c /IINCLUDE /I"C:\USERS\RAFAE\ONEDRIVE\DOCUMENTOS\GHOST\6TO\GRAFICACIONGRAFICADA}\GRAFICACION\PROJECTOSCG2\../LIBS/GLM" /I"C:\USERS\RAFAE\ONEDRIVE\DOCUMENTOS\GHOST\6TO\GRAFICACIONGRAFICADA}\GRAFICACION\PROJECTOSCG2\../LIBS/GLEW/INCLUDE" /I"C:\USERS\RAFAE\ONEDRIVE\DOCUMENTOS\GHOST\6TO\GRAFICACIONGRAFICADA}\GRAFICACION\PROJECTOSCG2\../LIBS/GLFW/INCLUDE" /ZI /nologo /W3 /WX- /diagnostics:classic /sdl /Od /D _MBCS /Gm /EHsc /RTC1 /MDd /GS /fp:precise /Zc:wchar_t /Zc:forScope /Zc:inline /Fo"X64\DEBUG\\" /Fd"X64\DEBUG\VC141.PDB" /Gd /TP C:\USERS\RAFAE\ONEDRIVE\DOCUMENTOS\GHOST\6TO\GRAFICACIONGRAFICADA}\GRAFICACION\PROJECTOSCG2\HELLOCUBE\SRC\SHADERFUNCS.CPP
