^C:\USERS\RAFAE\ONEDRIVE\DOCUMENTOS\GHOST\6TO\GRAFICACIONGRAFICADA}\GRAFICACION\PROJECTOSCG2\HELLOQUAD\X64\DEBUG\APPLICATION.OBJ|C:\USERS\RAFAE\ONEDRIVE\DOCUMENTOS\GHOST\6TO\GRAFICACIONGRAFICADA}\GRAFICACION\PROJECTOSCG2\HELLOQUAD\X64\DEBUG\HELLOTRIANGLE.OBJ|C:\USERS\RAFAE\ONEDRIVE\DOCUMENTOS\GHOST\6TO\GRAFICACIONGRAFICADA}\GRAFICACION\PROJECTOSCG2\HELLOQUAD\X64\DEBUG\SHADERFUNCS.OBJ
C:\WINDOWS\GLOBALIZATION\SORTING\SORTDEFAULT.NLS
C:\USERS\RAFAE\ONEDRIVE\DOCUMENTOS\GHOST\6TO\GRAFICACIONGRAFICADA}\GRAFICACION\LIBS\GLFW\SRC\DEBUG\GLFW3DLL.LIB
C:\PROGRAM FILES (X86)\WINDOWS KITS\10\LIB\10.0.15063.0\UM\X64\OPENGL32.LIB
C:\USERS\RAFAE\ONEDRIVE\DOCUMENTOS\GHOST\6TO\GRAFICACIONGRAFICADA}\GRAFICACION\LIBS\GLEW\LIB\DEBUG\X64\GLEW32D.LIB
C:\PROGRAM FILES (X86)\WINDOWS KITS\10\LIB\10.0.15063.0\UM\X64\KERNEL32.LIB
C:\PROGRAM FILES (X86)\WINDOWS KITS\10\LIB\10.0.15063.0\UM\X64\USER32.LIB
C:\PROGRAM FILES (X86)\WINDOWS KITS\10\LIB\10.0.15063.0\UM\X64\GDI32.LIB
C:\PROGRAM FILES (X86)\WINDOWS KITS\10\LIB\10.0.15063.0\UM\X64\WINSPOOL.LIB
C:\PROGRAM FILES (X86)\WINDOWS KITS\10\LIB\10.0.15063.0\UM\X64\COMDLG32.LIB
C:\PROGRAM FILES (X86)\WINDOWS KITS\10\LIB\10.0.15063.0\UM\X64\ADVAPI32.LIB
C:\PROGRAM FILES (X86)\WINDOWS KITS\10\LIB\10.0.15063.0\UM\X64\SHELL32.LIB
C:\PROGRAM FILES (X86)\WINDOWS KITS\10\LIB\10.0.15063.0\UM\X64\OLE32.LIB
C:\PROGRAM FILES (X86)\WINDOWS KITS\10\LIB\10.0.15063.0\UM\X64\OLEAUT32.LIB
C:\PROGRAM FILES (X86)\WINDOWS KITS\10\LIB\10.0.15063.0\UM\X64\UUID.LIB
C:\PROGRAM FILES (X86)\WINDOWS KITS\10\LIB\10.0.15063.0\UM\X64\ODBC32.LIB
C:\PROGRAM FILES (X86)\WINDOWS KITS\10\LIB\10.0.15063.0\UM\X64\ODBCCP32.LIB
C:\USERS\RAFAE\ONEDRIVE\DOCUMENTOS\GHOST\6TO\GRAFICACIONGRAFICADA}\GRAFICACION\PROJECTOSCG2\HELLOQUAD\X64\DEBUG\APPLICATION.OBJ
C:\USERS\RAFAE\ONEDRIVE\DOCUMENTOS\GHOST\6TO\GRAFICACIONGRAFICADA}\GRAFICACION\PROJECTOSCG2\HELLOQUAD\X64\DEBUG\HELLOTRIANGLE.OBJ
C:\USERS\RAFAE\ONEDRIVE\DOCUMENTOS\GHOST\6TO\GRAFICACIONGRAFICADA}\GRAFICACION\PROJECTOSCG2\HELLOQUAD\X64\DEBUG\SHADERFUNCS.OBJ
C:\WINDOWS\SYSTEM32\TZRES.DLL
C:\PROGRAM FILES (X86)\MICROSOFT VISUAL STUDIO\2017\COMMUNITY\VC\TOOLS\MSVC\14.11.25503\LIB\X64\MSVCPRTD.LIB
C:\PROGRAM FILES (X86)\MICROSOFT VISUAL STUDIO\2017\COMMUNITY\VC\TOOLS\MSVC\14.11.25503\LIB\X64\MSVCRTD.LIB
C:\PROGRAM FILES (X86)\MICROSOFT VISUAL STUDIO\2017\COMMUNITY\VC\TOOLS\MSVC\14.11.25503\LIB\X64\OLDNAMES.LIB
C:\PROGRAM FILES (X86)\MICROSOFT VISUAL STUDIO\2017\COMMUNITY\VC\TOOLS\MSVC\14.11.25503\LIB\X64\VCRUNTIMED.LIB
C:\PROGRAM FILES (X86)\WINDOWS KITS\10\LIB\10.0.15063.0\UCRT\X64\UCRTD.LIB
C:\PROGRAM FILES (X86)\MICROSOFT VISUAL STUDIO\2017\COMMUNITY\VC\TOOLS\MSVC\14.11.25503\BIN\HOSTX86\X64\LINK.EXE
C:\PROGRAM FILES (X86)\WINDOWS KITS\10\BIN\10.0.15063.0\X86\RC.EXE
C:\PROGRAM FILES (X86)\MICROSOFT VISUAL STUDIO\2017\COMMUNITY\VC\TOOLS\MSVC\14.11.25503\BIN\HOSTX86\X86\CVTRES.EXE
